<svg width="251" height="51" viewBox="0 0 251 51" fill="none" xmlns="http://www.w3.org/2000/svg">
<mask id="mask0" mask-type="alpha" maskUnits="userSpaceOnUse" x="0" y="0" width="64" height="51">
<path fill-rule="evenodd" clip-rule="evenodd" d="M0 0.661133H63.82V50.1022H0V0.661133Z" fill="white"/>
</mask>
<g mask="url(#mask0)">
<path fill-rule="evenodd" clip-rule="evenodd" d="M59.0043 29.6321C57.1134 34.1937 53.5579 37.746 48.9929 39.6356L31.9043 46.7088L24.8254 29.6321C20.9225 20.2158 25.4136 9.38206 34.8361 5.48148C37.0918 4.54776 39.4668 4.0745 41.8953 4.0745C49.4153 4.0745 56.1307 8.55357 59.0043 15.485C60.8946 20.0466 60.8946 25.0704 59.0043 29.6321M41.907 0.661133C38.3072 0.661133 34.91 1.52857 31.9136 3.06578C31.9125 3.06637 31.9113 3.06695 31.9102 3.06753C31.909 3.06695 31.9072 3.06637 31.9061 3.06578C28.9097 1.52857 25.5131 0.661133 21.9134 0.661133C9.81096 0.661133 -0.000244141 10.4646 -0.000244141 22.5582V22.578C0.0189559 31.1495 5.1087 39.2914 13.5148 42.771L30.604 49.8443V49.8443C31.0206 50.0164 31.4622 50.1024 31.9038 50.1024C31.9061 50.1024 31.9078 50.1024 31.9102 50.1024C31.9119 50.1024 31.9136 50.1024 31.916 50.1024C32.3582 50.1024 32.7998 50.0164 33.2158 49.8443H33.2163L50.3049 42.771C58.7116 39.2914 63.8014 31.1495 63.82 22.578V22.5582C63.82 10.4646 54.0094 0.661133 41.907 0.661133" fill="#FEFEFE"/>
</g>
<path fill-rule="evenodd" clip-rule="evenodd" d="M34.5 19.1025C32.5668 19.1025 31 20.6694 31 22.6025C31 24.5357 32.5668 26.1025 34.5 26.1025C36.4332 26.1025 38 24.5357 38 22.6025C38 20.6694 36.4332 19.1025 34.5 19.1025" fill="#FEFEFE"/>
<path fill-rule="evenodd" clip-rule="evenodd" d="M42.5 19.1025C40.5668 19.1025 39 20.6694 39 22.6025C39 24.5357 40.5668 26.1025 42.5 26.1025C44.4332 26.1025 46 24.5357 46 22.6025C46 20.6694 44.4332 19.1025 42.5 19.1025" fill="#FEFEFE"/>
<path fill-rule="evenodd" clip-rule="evenodd" d="M50.5 19.1025C48.5668 19.1025 47 20.6694 47 22.6025C47 24.5357 48.5668 26.1025 50.5 26.1025C52.4332 26.1025 54 24.5357 54 22.6025C54 20.6694 52.4332 19.1025 50.5 19.1025" fill="#FEFEFE"/>
<path fill-rule="evenodd" clip-rule="evenodd" d="M80.675 13.1025V21.875H80.7567L87.7255 13.1025H91.9036L84.8264 22.052L94 32.1025H89.2902L80.675 22.7726V32.1025H77V13.1025H80.675Z" fill="#FEFEFE"/>
<path fill-rule="evenodd" clip-rule="evenodd" d="M95.7996 22.6091C95.7996 23.838 96.086 24.9425 96.6577 25.9239C97.2299 26.9046 98.0261 27.665 99.048 28.2045C100.069 28.7435 101.224 29.0126 102.513 29.0126C104.466 29.0126 106.07 28.4163 107.328 27.2232C108.585 26.0301 109.214 24.4916 109.214 22.6091C109.214 21.3807 108.93 20.2733 108.363 19.288C107.795 18.3022 106.996 17.5401 105.966 17.0006C104.935 16.4616 103.776 16.1919 102.487 16.1919C101.197 16.1919 100.037 16.4639 99.0072 17.0074C97.9759 17.5508 97.1844 18.3113 96.6302 19.288C96.0767 20.2648 95.7996 21.3716 95.7996 22.6091M102.513 13.1025C104.484 13.1025 106.256 13.4984 107.832 14.2894C109.407 15.0805 110.662 16.2203 111.597 17.7099C112.532 19.1994 113 20.8327 113 22.6091C113 24.3417 112.544 25.9483 111.632 27.4288C110.719 28.9093 109.466 30.0581 107.872 30.8759C106.279 31.6937 104.484 32.1025 102.487 32.1025C100.516 32.1025 98.7255 31.6874 97.1138 30.856C95.5021 30.0258 94.2469 28.8826 93.348 27.4288C92.4491 25.975 92 24.3684 92 22.6091C92 20.9122 92.4491 19.317 93.348 17.8229C94.2469 16.3287 95.4864 15.1691 97.066 14.3422C98.6455 13.516 100.462 13.1025 102.513 13.1025" fill="#FEFEFE"/>
<path fill-rule="evenodd" clip-rule="evenodd" d="M117.675 13.1025V21.875H117.757L124.725 13.1025H128.904L121.826 22.052L131 32.1025H126.291L117.675 22.7726V32.1025H114V13.1025H117.675Z" fill="#FEFEFE"/>
<path fill-rule="evenodd" clip-rule="evenodd" d="M133.8 22.6091C133.8 23.838 134.086 24.9425 134.658 25.9239C135.229 26.9046 136.026 27.665 137.048 28.2045C138.069 28.7435 139.225 29.0126 140.514 29.0126C142.465 29.0126 144.07 28.4163 145.328 27.2232C146.585 26.0301 147.214 24.4916 147.214 22.6091C147.214 21.3807 146.931 20.2733 146.363 19.288C145.796 18.3022 144.997 17.5401 143.966 17.0006C142.936 16.4616 141.776 16.1919 140.487 16.1919C139.197 16.1919 138.038 16.4639 137.007 17.0074C135.977 17.5508 135.185 18.3113 134.631 19.288C134.077 20.2648 133.8 21.3716 133.8 22.6091M140.514 13.1025C142.484 13.1025 144.257 13.4984 145.832 14.2894C147.407 15.0805 148.662 16.2203 149.598 17.7099C150.533 19.1994 151 20.8327 151 22.6091C151 24.3417 150.544 25.9483 149.632 27.4288C148.719 28.9093 147.466 30.0581 145.873 30.8759C144.28 31.6937 142.484 32.1025 140.487 32.1025C138.516 32.1025 136.726 31.6874 135.114 30.856C133.502 30.0258 132.248 28.8826 131.349 27.4288C130.45 25.975 130 24.3684 130 22.6091C130 20.9122 130.45 19.317 131.349 17.8229C132.248 16.3287 133.486 15.1691 135.067 14.3422C136.646 13.516 138.462 13.1025 140.514 13.1025" fill="#FEFEFE"/>
<path fill-rule="evenodd" clip-rule="evenodd" d="M160.532 29.233C162.552 29.233 164.172 28.6236 165.395 27.4032C166.616 26.184 167.227 24.5861 167.227 22.6089C167.227 20.5602 166.612 18.9413 165.381 17.7535C164.15 16.5657 162.494 15.9721 160.411 15.9721H156.652V29.233H160.532ZM160.911 13.1025C162.877 13.1025 164.626 13.5057 166.159 14.313C167.691 15.1199 168.881 16.2535 169.729 17.7133C170.577 19.1726 171 20.8136 171 22.6363C171 24.4952 170.574 26.1432 169.722 27.5803C168.871 29.0174 167.66 30.1307 166.091 30.9194C164.522 31.7082 162.724 32.1025 160.695 32.1025H153V13.1025H160.911Z" fill="#FEFEFE"/>
<path fill-rule="evenodd" clip-rule="evenodd" d="M176.807 24.6903H182.947L179.735 17.1692L176.807 24.6903ZM181.6 13.1025L190 32.1025H186.119L184.145 27.4789H175.691L173.853 32.1025H170L177.842 13.1025H181.6Z" fill="#FEFEFE"/>
<path fill-rule="evenodd" clip-rule="evenodd" d="M205 13.1025V15.9727H197.926V32.1025H194.074V15.9727H187V13.1025H205Z" fill="#FEFEFE"/>
<mask id="mask1" mask-type="alpha" maskUnits="userSpaceOnUse" x="0" y="0" width="250" height="51">
<path fill-rule="evenodd" clip-rule="evenodd" d="M0 50.1025H250V0.102539H0V50.1025Z" fill="white"/>
</mask>
<g mask="url(#mask1)">
<path fill-rule="evenodd" clip-rule="evenodd" d="M206 32.1025H210V13.1025H206V32.1025Z" fill="#FEFEFE"/>
<path fill-rule="evenodd" clip-rule="evenodd" d="M215.205 13.1025L226.43 26.3634V13.1025H230V32.1025H226.862L215.57 18.6244V32.1025H212V13.1025H215.205Z" fill="#FEFEFE"/>
<path fill-rule="evenodd" clip-rule="evenodd" d="M243.687 13.1025C246.017 13.1025 248.328 13.6108 250.622 14.6273V17.9024C248.328 16.762 246.071 16.1919 243.849 16.1919C242.468 16.1919 241.239 16.4616 240.165 17.0006C239.091 17.5395 238.258 18.3152 237.666 19.3272C237.075 20.3398 236.779 21.4687 236.779 22.7153C236.779 24.6064 237.423 26.1289 238.71 27.2828C239.996 28.4362 241.691 29.0126 243.795 29.0126C244.373 29.0126 244.926 28.9649 245.454 28.8673C245.983 28.7696 246.613 28.5844 247.344 28.3101V25.2344H244.215V22.4364H251V30.0735C250.071 30.7101 248.953 31.2075 247.649 31.5653C246.343 31.9231 244.987 32.1025 243.579 32.1025C241.583 32.1025 239.775 31.7005 238.154 30.8958C236.533 30.0916 235.269 28.9649 234.362 27.5145C233.454 26.0653 233 24.4479 233 22.6619C233 20.8503 233.458 19.2102 234.375 17.7428C235.291 16.2759 236.569 15.1356 238.208 14.3224C239.847 13.5092 241.673 13.1025 243.687 13.1025" fill="#FEFEFE"/>
</g>
</svg>
