<svg width="65" height="81" viewBox="0 0 65 81" fill="none" xmlns="http://www.w3.org/2000/svg">
<path fill-rule="evenodd" clip-rule="evenodd" d="M61.0608 73.6935C61.0608 75.7884 58.8941 77.1218 56.7274 77.1218H8.27279C6.1061 77.1218 3.93941 75.7884 3.93941 73.6935V19.126C4.14035 16.9451 6.00883 15.2616 8.27279 15.2215H15.7576V20.0783C15.8617 21.1453 16.8174 21.9437 17.9243 21.8879H46.9773C48.1046 21.9475 49.0903 21.1601 49.2424 20.0783V15.2213H56.7272C58.991 15.2616 60.8596 16.9449 61.0606 19.1259V73.6935H61.0608ZM19.697 10.46H25.1138C26.0593 10.3482 26.8188 9.65285 26.9851 8.74565C27.5683 6.28963 29.7964 4.52664 32.4018 4.46047C34.9828 4.53612 37.1776 6.3044 37.7199 8.74565C37.8966 9.68402 38.7062 10.3887 39.6896 10.46H45.3034V18.0785H19.697V10.46ZM56.7274 11.412H49.2426V8.17439C49.2426 7.12684 48.0608 6.65055 46.9775 6.65055H41.167C39.7882 2.84129 36.3412 0.936845 32.4018 0.936845C28.5057 0.795032 24.962 3.10523 23.6366 6.65055H17.9245C16.8412 6.65055 15.7578 7.12684 15.7578 8.17439V11.412H8.27279C3.83723 11.4578 0.208488 14.8412 0 19.1259V73.6933C0 77.8833 3.93941 80.9307 8.27279 80.9307H56.7274C61.0608 80.9307 65 77.8833 65 73.6933V19.126C64.7917 14.8412 61.163 11.4578 56.7274 11.412Z" fill="#172B4D"/>
<path fill-rule="evenodd" clip-rule="evenodd" d="M24.4581 44.5458C23.7975 43.8537 22.7008 43.8146 21.9921 44.4583L16.3557 49.7976L13.9777 47.3467C13.3171 46.6546 12.2203 46.6156 11.5117 47.2591C10.8294 47.9696 10.8294 49.0871 11.5117 49.7976L15.1225 53.474C15.4352 53.8216 15.8864 54.0141 16.3556 53.9992C16.82 53.9927 17.2632 53.8038 17.5883 53.474L24.4578 46.9967C25.1388 46.3758 25.1845 45.3237 24.5596 44.647C24.5274 44.6116 24.4935 44.5778 24.4581 44.5458Z" fill="#172B4D"/>
<path fill-rule="evenodd" clip-rule="evenodd" d="M54 48H31C29.8952 48 29 48.6716 29 49.5001C29 50.3286 29.8952 51 31 51H54C55.1046 51 56 50.3286 56 49.5001C56 48.6716 55.1046 48 54 48Z" fill="#172B4D"/>
<path fill-rule="evenodd" clip-rule="evenodd" d="M24.4581 27.5458C23.7975 26.8536 22.7008 26.8147 21.9921 27.4584L16.3557 32.7977L13.9777 30.3467C13.3171 29.6546 12.2203 29.6156 11.5117 30.2591C10.8294 30.9696 10.8294 32.0871 11.5117 32.7977L15.1225 36.4738C15.4352 36.8216 15.8864 37.0141 16.3556 36.9992C16.82 36.9927 17.2632 36.8038 17.5883 36.4738L24.4578 29.9968C25.1388 29.3759 25.1845 28.3237 24.5596 27.647C24.5274 27.6117 24.4935 27.5778 24.4581 27.5458Z" fill="#172B4D"/>
<path fill-rule="evenodd" clip-rule="evenodd" d="M54 31H31C29.8952 31 29 31.6716 29 32.4999C29 33.3286 29.8952 34 31 34H54C55.1046 34 56 33.3286 56 32.4999C56 31.6716 55.1046 31 54 31Z" fill="#172B4D"/>
<path fill-rule="evenodd" clip-rule="evenodd" d="M24.4581 61.5457C23.7975 60.8536 22.7008 60.8147 21.9921 61.4583L16.3557 66.7976L13.9777 64.3467C13.3171 63.6545 12.2203 63.6155 11.5117 64.2592C10.8294 64.9696 10.8294 66.0871 11.5117 66.7976L15.1225 70.474C15.4352 70.8218 15.8864 71.0141 16.3556 70.9992C16.82 70.9927 17.2632 70.8038 17.5883 70.474L24.4578 63.9967C25.1388 63.3758 25.1845 62.3236 24.5596 61.6469C24.5274 61.6117 24.4935 61.578 24.4581 61.5457Z" fill="#172B4D"/>
<path fill-rule="evenodd" clip-rule="evenodd" d="M54 65H31C29.8952 65 29 65.6715 29 66.5C29 67.3285 29.8952 68 31 68H54C55.1046 68 56 67.3285 56 66.5C56 65.6715 55.1046 65 54 65Z" fill="#172B4D"/>
</svg>
